{
  "name": "react-webdriverio-gitlab-ci-cd-omarsaidi",
  "version": "0.1.0",
  "private": true,
  "dependencies": {
    "@testing-library/jest-dom": "^5.12.0",
    "@testing-library/react": "^11.2.7",
    "@testing-library/user-event": "^12.8.3",
    "@wdio/cli": "^7.6.1",
    "react": "^17.0.2",
    "react-dom": "^17.0.2",
    "react-scripts": "4.0.3",
    "web-vitals": "^1.1.2"
  },
  "scripts": {
    "start": "react-scripts start",
    "build": "react-scripts build",
    "test": "react-scripts test",
    "eject": "react-scripts eject",
    "wdioTest": "./node_modules/.bin/wdio ./wdio.conf.js"
  },
  "eslintConfig": {
    "extends": [
      "react-app",
      "react-app/jest"
    ]
  },
  "browserslist": {
    "production": [
      ">0.2%",
      "not dead",
      "not op_mini all"
    ],
    "development": [
      "last 1 chrome version",
      "last 1 firefox version",
      "last 1 safari version"
    ]
  },
  "devDependencies": {
    "@wdio/local-runner": "^7.6.1",
    "@wdio/mocha-framework": "^7.6.0",
    "@wdio/spec-reporter": "^7.6.1",
    "chai": "^4.3.4",
    "chai-webdriverio": "^1.0.0",
    "chromedriver": "^90.0.1",
    "local-runner": "^0.1.1-alpha",
    "wdio-chromedriver-service": "^7.1.0",
    "webdriverio": "^7.6.1"
  }
}
